\relax 
\providecommand\hyper@newdestlabel[2]{}
\providecommand\HyperFirstAtBeginDocument{\AtBeginDocument}
\HyperFirstAtBeginDocument{\ifx\hyper@anchor\@undefined
\global\let\oldcontentsline\contentsline
\gdef\contentsline#1#2#3#4{\oldcontentsline{#1}{#2}{#3}}
\global\let\oldnewlabel\newlabel
\gdef\newlabel#1#2{\newlabelxx{#1}#2}
\gdef\newlabelxx#1#2#3#4#5#6{\oldnewlabel{#1}{{#2}{#3}}}
\AtEndDocument{\ifx\hyper@anchor\@undefined
\let\contentsline\oldcontentsline
\let\newlabel\oldnewlabel
\fi}
\fi}
\global\let\hyper@last\relax 
\gdef\HyperFirstAtBeginDocument#1{#1}
\providecommand\HyField@AuxAddToFields[1]{}
\providecommand\HyField@AuxAddToCoFields[2]{}
\providecommand\babel@aux[2]{}
\@nameuse{bbl@beforestart}
\babel@aux{english}{}
\@writefile{nav}{\headcommand {\slideentry {0}{0}{1}{1/1}{}{0}}}
\@writefile{nav}{\headcommand {\beamer@framepages {1}{1}}}
\@writefile{nav}{\headcommand {\slideentry {0}{0}{2}{2/2}{}{0}}}
\@writefile{nav}{\headcommand {\beamer@framepages {2}{2}}}
\@writefile{toc}{\beamer@sectionintoc {1}{Additive manufacturing}{3}{0}{1}}
\@writefile{nav}{\headcommand {\beamer@sectionpages {1}{2}}}
\@writefile{nav}{\headcommand {\beamer@subsectionpages {1}{2}}}
\@writefile{nav}{\headcommand {\sectionentry {1}{Additive manufacturing}{3}{Additive manufacturing}{0}}}
\@writefile{nav}{\headcommand {\slideentry {1}{0}{0}{3/3}{}{0}}}
\@writefile{nav}{\headcommand {\beamer@framepages {3}{3}}}
\@writefile{toc}{\beamer@sectionintoc {2}{DMLS}{4}{0}{2}}
\@writefile{nav}{\headcommand {\beamer@sectionpages {1}{3}}}
\@writefile{nav}{\headcommand {\beamer@subsectionpages {1}{3}}}
\@writefile{nav}{\headcommand {\sectionentry {2}{DMLS}{4}{DMLS}{0}}}
\@writefile{nav}{\headcommand {\slideentry {2}{0}{0}{4/4}{}{0}}}
\@writefile{nav}{\headcommand {\beamer@framepages {4}{4}}}
\citation{theengineer}
\citation{theengineer}
\@writefile{toc}{\beamer@sectionintoc {3}{When simulation makes sense?}{5}{0}{3}}
\@writefile{nav}{\headcommand {\beamer@sectionpages {1}{4}}}
\@writefile{nav}{\headcommand {\beamer@subsectionpages {1}{4}}}
\@writefile{nav}{\headcommand {\sectionentry {3}{When simulation makes sense?}{5}{When simulation makes sense?}{0}}}
\providecommand*\caption@xref[2]{\@setref\relax\@undefined{#1}}
\newlabel{fig:fig2}{{2}{5}{Simulation\cite {theengineer}\relax }{Doc-Start}{}}
\@writefile{snm}{\beamer@slide {fig:fig2}{5}}
\@writefile{nav}{\headcommand {\slideentry {3}{0}{0}{5/5}{}{0}}}
\@writefile{nav}{\headcommand {\beamer@framepages {5}{5}}}
\citation{theengineer}
\citation{theengineer}
\citation{theengineer}
\@writefile{toc}{\beamer@sectionintoc {4}{Challenges of simulations}{6}{0}{4}}
\@writefile{nav}{\headcommand {\beamer@sectionpages {1}{5}}}
\@writefile{nav}{\headcommand {\beamer@subsectionpages {1}{5}}}
\@writefile{nav}{\headcommand {\sectionentry {4}{Challenges of simulations}{6}{Challenges of simulations}{0}}}
\newlabel{fig:my_label}{{3}{6}{Multi-scale simulation\cite {theengineer}\relax }{Doc-Start}{}}
\@writefile{snm}{\beamer@slide {fig:my_label}{6}}
\@writefile{nav}{\headcommand {\slideentry {4}{0}{0}{6/6}{}{0}}}
\@writefile{nav}{\headcommand {\beamer@framepages {6}{6}}}
\citation{hubs}
\citation{hubs}
\@writefile{toc}{\beamer@sectionintoc {5}{Future vision}{7}{0}{5}}
\@writefile{nav}{\headcommand {\beamer@sectionpages {1}{6}}}
\@writefile{nav}{\headcommand {\beamer@subsectionpages {1}{6}}}
\@writefile{nav}{\headcommand {\sectionentry {5}{Future vision}{7}{Future vision}{0}}}
\newlabel{fig:fig4}{{4}{7}{Deformation vectors of a model\cite {hubs}\relax }{Doc-Start}{}}
\@writefile{snm}{\beamer@slide {fig:fig4}{7}}
\@writefile{nav}{\headcommand {\slideentry {5}{0}{0}{7/7}{}{0}}}
\@writefile{nav}{\headcommand {\beamer@framepages {7}{7}}}
\@writefile{toc}{\beamer@sectionintoc {6}{Conclusion}{8}{0}{6}}
\@writefile{nav}{\headcommand {\beamer@sectionpages {1}{7}}}
\@writefile{nav}{\headcommand {\beamer@subsectionpages {1}{7}}}
\@writefile{nav}{\headcommand {\sectionentry {6}{Conclusion}{8}{Conclusion}{0}}}
\newlabel{fig:fig5}{{5}{8}{Simulating LPBF\relax }{Doc-Start}{}}
\@writefile{snm}{\beamer@slide {fig:fig5}{8}}
\@writefile{nav}{\headcommand {\slideentry {6}{0}{0}{8/8}{}{0}}}
\@writefile{nav}{\headcommand {\beamer@framepages {8}{8}}}
\bibstyle{unsrt}
\bibdata{references}
\bibcite{theengineer}{\hyperlink {beamerbibtheengineer}{1}}
\bibcite{hubs}{\hyperlink {beamerbibhubs}{2}}
\@writefile{toc}{\beamer@sectionintoc {7}{References}{9}{0}{7}}
\@writefile{nav}{\headcommand {\beamer@sectionpages {1}{8}}}
\@writefile{nav}{\headcommand {\beamer@subsectionpages {1}{8}}}
\@writefile{nav}{\headcommand {\sectionentry {7}{References}{9}{References}{0}}}
\@writefile{nav}{\headcommand {\slideentry {7}{0}{0}{9/9}{}{0}}}
\@writefile{nav}{\headcommand {\beamer@framepages {9}{9}}}
\@writefile{nav}{\headcommand {\beamer@partpages {1}{9}}}
\@writefile{nav}{\headcommand {\beamer@subsectionpages {1}{9}}}
\@writefile{nav}{\headcommand {\beamer@sectionpages {1}{9}}}
\@writefile{nav}{\headcommand {\beamer@documentpages {9}}}
\@writefile{nav}{\headcommand {\gdef \inserttotalframenumber {9}}}
\gdef \@abspage@last{9}
